^E:\HOC_TAP\HOCKY_5\LTW\GROUP3\DRAWSOMETHING\DRAWSOMETHING\STDAFX.CPP
/c /ZI /nologo /W3 /WX- /sdl /Od /Oy- /D WIN32 /D _DEBUG /D _WINDOWS /D _UNICODE /D UNICODE /Gm /EHsc /RTC1 /MDd /GS /fp:precise /Zc:wchar_t /Zc:forScope /Yc"stdafx.h" /Fp"DEBUG\DRAWSOMETHING.PCH" /Fo"DEBUG\\" /Fd"DEBUG\VC120.PDB" /Gd /TP /analyze- E:\HOC_TAP\HOCKY_5\LTW\GROUP3\DRAWSOMETHING\DRAWSOMETHING\STDAFX.CPP
^E:\HOC_TAP\HOCKY_5\LTW\GROUP3\DRAWSOMETHING\DRAWSOMETHING\DRAWSOMETHING.CPP
/c /ZI /nologo /W3 /WX- /sdl /Od /Oy- /D WIN32 /D _DEBUG /D _WINDOWS /D _UNICODE /D UNICODE /Gm /EHsc /RTC1 /MDd /GS /fp:precise /Zc:wchar_t /Zc:forScope /Yu"stdafx.h" /Fp"DEBUG\DRAWSOMETHING.PCH" /Fo"DEBUG\\" /Fd"DEBUG\VC120.PDB" /Gd /TP /analyze- E:\HOC_TAP\HOCKY_5\LTW\GROUP3\DRAWSOMETHING\DRAWSOMETHING\DRAWSOMETHING.CPP
